<?xml version="1.0" encoding="UTF-8" standalone="no"?>
<!-- Created with Inkscape (http://www.inkscape.org/) -->

<svg
   xmlns:dc="http://purl.org/dc/elements/1.1/"
   xmlns:cc="http://creativecommons.org/ns#"
   xmlns:rdf="http://www.w3.org/1999/02/22-rdf-syntax-ns#"
   xmlns:svg="http://www.w3.org/2000/svg"
   xmlns="http://www.w3.org/2000/svg"
   xmlns:sodipodi="http://sodipodi.sourceforge.net/DTD/sodipodi-0.dtd"
   xmlns:inkscape="http://www.inkscape.org/namespaces/inkscape"
   width="210mm"
   height="297mm"
   viewBox="0 0 210 297"
   version="1.1"
   id="svg4888"
   inkscape:version="0.92.4 (5da689c313, 2019-01-14)"
   sodipodi:docname="logo white.svg">
  <defs
     id="defs4882" />
  <sodipodi:namedview
     id="base"
     pagecolor="#ffffff"
     bordercolor="#666666"
     borderopacity="1.0"
     inkscape:pageopacity="0.0"
     inkscape:pageshadow="2"
     inkscape:zoom="0.35"
     inkscape:cx="-224.28571"
     inkscape:cy="560"
     inkscape:document-units="mm"
     inkscape:current-layer="layer1"
     showgrid="false"
     inkscape:window-width="1501"
     inkscape:window-height="1251"
     inkscape:window-x="-8"
     inkscape:window-y="-8"
     inkscape:window-maximized="1" />
  <metadata
     id="metadata4885">
    <rdf:RDF>
      <cc:Work
         rdf:about="">
        <dc:format>image/svg+xml</dc:format>
        <dc:type
           rdf:resource="http://purl.org/dc/dcmitype/StillImage" />
        <dc:title></dc:title>
      </cc:Work>
    </rdf:RDF>
  </metadata>
  <g
     inkscape:label="Ebene 1"
     inkscape:groupmode="layer"
     id="layer1">
    <g
       id="g4771"
       transform="matrix(0.26458333,0,0,0.26458333,100.90448,-24.589418)"
       inkscape:export-xdpi="11.508249"
       inkscape:export-ydpi="11.508249">
      <path
         d="m 372.7,613.5 c -2.1,-1.8 -4.6,-3.2 -7.3,-4.1 12.8,-15.2 6.7,-37.8 -12.5,-49.5 -11.4,-6.9 -25.2,-4.3 -35.8,2.6 -2.4,1.6 -4.9,3.8 -7.2,6.3 -2.7,-8.7 -9.5,-16.6 -17.4,-21 -10.9,-6.2 -37.2,-6.1 -42.6,7.8 -11.4,-12.8 -26.3,-17.8 -43.1,-9.9 -16.2,7.6 -16.3,28.3 -14.3,44.4 -13.6,-1.3 -23.9,-1.8 -36.6,7.3 -10.4,7.4 -16.7,24.6 -12.9,36.8 6.5,20.8 24.7,30.2 41.8,26.7 -0.3,3.8 -0.6,7.6 -0.8,11.4 -15.4,-2.7 -41.8,-5.3 -52.7,8.4 -14.8,18.6 -9.7,41.3 -7.9,63.5 1.5,19.2 -2.1,56 14.1,71 13.2,12.1 28.8,16.8 45.1,8.9 9,48.8 51.5,49.1 95.5,47 37.4,-1.7 68.8,-5.2 75.8,-45.9 9.1,-53.1 3.4,-110.8 -3.7,-164.1 9.8,-1.4 20,-6.7 24.8,-14.3 5.7,-9.1 6.4,-25.7 -2.3,-33.3 z M 167.2,772.8 c -2.4,-9.3 -3.9,-19.1 -5.2,-28.6 -0.8,-6 -0.8,-12.1 -0.8,-18.1 0.1,-13.8 9.6,-17.6 21.2,-17.8 -0.2,8.5 -0.4,17 -0.5,25.4 -0.3,15.8 -1.5,32.3 -1.8,48.6 -4.9,-2.3 -11.7,-4.8 -12.9,-9.5 z m -34,-30.8 c -0.8,-10.2 -1.6,-20.4 -2.2,-30.7 -1.9,-35.2 32.4,-29.6 52.3,-28.3 -0.2,4.9 -0.4,9.9 -0.5,14.8 -23.8,-3.6 -31,14.2 -31.2,36.3 -0.1,15.3 3.4,31.6 7.2,46.3 2.2,8.7 13.8,10.5 21.3,11.7 0.1,8.1 0.4,16.1 1.3,23.9 -47.4,6 -45.6,-40.4 -48.2,-74 z m 211.3,90.6 c -5,30.3 -55.1,27.6 -75.5,28.7 -14.1,0.7 -28,0.2 -42,-1.5 -39.6,-5 -37.2,-46.8 -36.5,-76.1 0.9,-41.4 3.1,-83.3 0.3,-124.7 5.4,-2.2 10.5,-5.7 14.8,-10.7 2.9,9.5 15.7,15.2 25.5,16 10.5,0.9 19.8,-5.1 25.7,-13.5 5.8,17.2 24.2,27.6 43,23.2 9.3,-2.2 18.4,-10.4 22.2,-19 0.6,-1.4 1.3,-3.1 1.9,-4.9 4.1,5.5 9.9,9.6 16,10.9 0,0.1 0,0.2 0,0.3 5.4,39.9 7.8,79.7 7.3,120 0,17 0,34.3 -2.7,51.3 z m 12.6,-185.1 c -7.2,2.4 -15.7,4.4 -21.9,-1.1 -5.1,-4.5 -6.6,-11.6 -12.2,-15.4 -0.9,-0.6 -1.8,-0.5 -2.5,-0.1 -1,-0.1 -1.7,0.8 -2,1.7 -2,7.3 -1,13.9 -5.1,20.9 -4.9,8.3 -14.1,11.5 -23.2,11.2 -16.7,-0.4 -21.9,-14.4 -27.9,-26.8 0,-0.1 0.1,-0.2 0.1,-0.3 0.4,-2.3 -1,-3.9 -2.6,-3.9 -2,-1.2 -4.7,2 -4.8,4.1 0,0.1 0,0.1 0,0.2 -4.6,7.2 -7,14.4 -17,16.8 -5.1,1.3 -11,-0.1 -15.8,-1.8 -7.3,-2.5 -9.5,-8.6 -11.2,-15.4 -0.3,-1 -0.9,-1.4 -1.6,-1.5 -1.4,-1.6 -3.7,-1.9 -5.5,0.9 -11.9,18.5 -34.8,19.2 -47.6,1.2 -11.1,-15.5 1.3,-33.5 17.1,-38 6.6,-1.9 16.8,0.8 23.7,1.2 4,0.2 6.2,-4.2 5.6,-7.7 -2.6,-14.2 -7.2,-36.4 15.7,-42.2 10.8,-2.8 22.1,4 30.6,10 0.2,2.3 2.2,3.4 4.4,2.6 4.7,-1.8 7.8,-5.6 12.6,-7.2 5.5,-1.8 11.5,-1.2 17.1,-0.3 12.3,2 19,11.4 20.5,22.2 -1.3,3.7 -1.6,7.6 -0.1,11.2 0.1,0.6 0.4,1 0.9,1.1 1.1,0.7 2.7,0.3 3.6,-0.5 4.8,-4.3 6.6,-10.4 11.2,-15 6.5,-6.5 15.2,-7.8 23.9,-6.7 9.6,1.2 17.2,9.7 20.5,18.2 3.5,9.2 -2.2,15.6 -8.1,21.6 -3.3,1.1 -5.9,3.5 -7.2,7.9 -0.4,1.3 0.4,2.5 1.7,2.8 6.3,1.4 11.7,-0.8 16.4,5.3 6.7,9.1 -0.3,19.8 -9.3,22.8 z"
         id="path4765"
         style="fill:#ffffff;fill-opacity:1"
         inkscape:connector-curvature="0" />
      <path
         d="m 259.7,749.3 c 0.1,-11.4 4.2,-67.7 -20.6,-57.7 -4.1,-1.4 -8.6,-0.7 -13,3.2 -12.2,10.5 -9.9,27 -8.9,41.4 0.8,11.6 -4.2,94.1 21.2,89.9 32,-5.4 21.1,-54.5 21.3,-76.8 z m -6.1,43.4 c -8.6,33.5 -24.3,9 -22.2,-4.9 -0.6,-9 -1.1,-18 -1.7,-27 -0.7,-11.3 -9.2,-51.8 7.8,-59 22,6.2 15.8,73.7 16.1,90.9 z"
         id="path4767"
         style="fill:#ffffff;fill-opacity:1"
         inkscape:connector-curvature="0" />
      <path
         d="m 325.9,749.3 c 0.1,-11.4 4.2,-67.7 -20.6,-57.7 -4.1,-1.4 -8.6,-0.7 -13,3.2 -12.2,10.5 -9.9,27 -8.9,41.4 0.8,11.6 -4.2,94.1 21.2,89.9 32,-5.4 21.1,-54.5 21.3,-76.8 z m -6.1,43.4 c -8.6,33.5 -24.3,9 -22.2,-4.9 -0.6,-9 -1.1,-18 -1.7,-27 -0.7,-11.3 -9.2,-51.8 7.8,-59 22.1,6.2 15.8,73.7 16.1,90.9 z"
         id="path4769"
         style="fill:#ffffff;fill-opacity:1"
         inkscape:connector-curvature="0" />
    </g>
    <g
       id="g4775"
       transform="matrix(0.26458333,0,0,0.26458333,-46.421633,75.61191)"
       inkscape:export-xdpi="11.508249"
       inkscape:export-ydpi="11.508249">
      <path
         d="m 657.81937,480.54711 c -14.2,-1.9 -28.7,-2.9 -43.3,-3.6 -0.7,-0.7 -1.4,-1.3 -2.2,-2 -1.3,-1.3 -2.7,-2.3 -4.1,-3.2 -8.2,-10.2 -12.5,-22.8 -14.7,-36.4 11.1,-3.3 21.9,-7 32.3,-11 4.3,-1.7 5.4,-7.1 3.9,-10.7 0.5,-0.9 0.9,-1.8 1.2,-2.5 5.7,-17.6 4,-39.6 5,-58 1.3,-24.5 1.1,-49.1 0.9,-73.6 0,-2 -0.7,-3.3 -1.6,-4.2 0.1,-0.9 0.2,-1.9 0,-2.8 -1.8,-8.2 -8.9,-12.9 -16,-16.6 -9,-4.8 -20.1,-11.1 -30.5,-12.5 0.9,-2.7 0.4,-5.6 -2.4,-6.4 -8.8,-2.5 -19.1,-5.8 -28.3,-4.1 -0.2,0 -0.4,0.2 -0.6,0.2 -1.3,-0.6 -3,-0.2 -4.4,0.9 -40.7,-2 -81.4,-0.6 -122,2.9 0.5,-2.8 -0.4,-5.5 -3.7,-5.6 -10.7,-0.6 -20.1,2.7 -29.1,8.3 0,0 0,0 -0.1,0.1 -2.7,-0.6 -6.5,1.6 -7.3,5.2 -12.3,6.6 -34.3,15.5 -40.5,29.4 -9.2,20.6 -3.9,50.2 -4.1,72 -0.4,32.4 -6,95.2 42.3,93.8 -4.1,16.6 -11.9,30.5 -26.7,37 -0.4,0.2 -0.7,0.4 -0.9,0.7 -10.5,0.3 -21,0.5 -31.5,0.9 -4.3,0.1 -6.7,8.4 -1.7,8.4 52.4,0.4 104.8,0.8 157.2,1.5 56.4,0.7 114.4,6.8 170.7,3.3 5.5,-0.5 9,-10.5 2.2,-11.4 z m -37.2,-69 c -9.6,3.8 -19.2,7.1 -28.6,9.9 -1,-13.3 -0.6,-27 -0.2,-39.9 10.3,2.5 23.3,1.7 33.3,-0.2 -0.1,11.2 -1,22.1 -4.4,30 -0.1,0.1 -0.1,0.2 -0.1,0.2 z m -29.6,-94.6 c 4.6,0.2 9.1,0.2 13.7,0.2 6.7,0.1 13.7,0.7 19.9,-2.1 0.1,0 0.1,-0.1 0.2,-0.1 -0.1,10 -0.3,20.1 -0.5,30.1 -0.2,6.7 0.3,14.9 0.6,23.4 -5.7,0.3 -11.3,0.8 -17,0.8 -5.3,0 -10.6,-0.7 -15.9,-0.5 0,-2.3 0.1,-4.7 0.1,-6.9 -0.3,-14.9 -0.6,-29.9 -1.1,-44.9 z m 34.5,-38 c -0.4,0.9 -0.7,1.9 -0.7,3 0.1,7.9 0,15.9 0,23.8 -5.4,-2.4 -11.7,-1.7 -17.5,-1.6 -5.6,0 -11.1,0.1 -16.7,0.4 -0.5,-16.2 -1.2,-32.5 -1.9,-48.7 12.9,6.9 30.4,9.7 36.8,23.1 z m -66,-35.9 c 6.2,2.1 13,3.1 19.3,5 0,47.5 1.6,94.9 3.3,142.4 0.4,11.1 0.4,22.4 1.1,33.5 -8.2,2.2 -16.3,4 -24.5,5.6 1.4,-17.9 1.7,-35.9 1.7,-53.9 0.2,-44.1 1.2,-88.6 -0.9,-132.6 z m -159.8,181 c 2.7,-58.6 0,-117.8 1.1,-176.5 6.6,-3.2 14.1,-4.4 21.4,-4.5 -5.8,44.1 -1.6,90.3 0.7,134.4 0.9,17.1 0.4,36 2.3,54.4 -8.6,-0.9 -17.2,-1.9 -25.9,-3.1 0.2,-1.5 0.3,-3.1 0.4,-4.7 z m -41.8,-133.3 c 0.2,-15.1 20,-26.9 32.9,-35.7 0.2,16.8 0.3,33.6 0.4,50.4 -11.1,-0.1 -22.4,-0.1 -33.5,0.7 0,-5.1 0.1,-10.3 0.2,-15.4 z m -0.5,39.8 c 0.1,-4.4 0.1,-8.7 0.2,-13.1 10.6,0.7 21.3,0.6 31.8,0.6 0.7,0 1.3,-0.2 1.8,-0.4 0,11 0.1,22 0,33 0,5.1 0.2,10.9 0.4,17.1 -0.2,0 -0.4,-0.2 -0.7,-0.1 -9.4,0.3 -18.8,0.8 -28.2,1.3 -1.7,0.1 -4.3,0.3 -6.8,0.9 0,-14.8 1.3,-29.2 1.5,-39.3 z m 25.4,96.1 c -0.2,0 -0.4,0 -0.7,0.1 -18.2,-4.7 -24.1,-23.7 -25.7,-44.6 10.6,-0.1 21.1,-0.3 31.7,-0.8 1.5,-0.1 2.8,-0.8 4,-1.8 0.6,15.5 0.8,32.5 -1.3,48.2 -2.7,-0.4 -5.3,-0.7 -8,-1.1 z m -3.4,50.6 c 10.5,-8.4 15.7,-21.4 18.2,-35.3 9.8,3 19.9,5.4 30.1,7.2 2,9.7 5,18.9 9.6,27.3 -19.2,0.2 -38.6,0.4 -57.9,0.8 z m 163.6,-0.9 c -14.3,0.1 -28.5,0.3 -42.6,0.2 -16,-0.1 -32.1,-0.1 -48.1,0 -0.1,-0.7 -0.4,-1.3 -0.8,-1.9 -4.9,-7 -8.3,-14.9 -10.8,-23.4 34.7,4.4 70.9,2.2 105.8,-4.3 -0.8,9.7 -2,19.5 -3.5,29.4 z m 4.8,-45 c -36.7,5.7 -73.2,5.2 -111,1.7 -2.5,-16.6 -2.6,-34.3 -2.9,-50.7 19.9,0.9 39.9,0.3 59.7,-0.1 18.6,-0.4 37.6,1 55.9,-2.1 0,17.1 -0.5,34.2 -1.7,51.2 z m -60.7,-61.9 c -17.7,0 -35.6,0 -53.3,1.2 -0.1,-2.7 -0.2,-5.4 -0.3,-8.1 -0.9,-15.4 -1.1,-30.8 -1.2,-46.3 38.2,3.7 78.4,-1.2 116.7,-2 0.2,0 0.4,-0.1 0.7,-0.2 0.1,18.8 0.3,37.5 0.3,56.3 -20.5,-3.1 -42.4,-0.9 -62.9,-0.9 z m 62.4,-68 c -38.7,1.6 -79.2,-0.4 -117.4,5.8 -0.1,-20 -0.3,-39.9 -1.5,-59.7 39.9,-3.2 79.6,-3.7 119.6,-2.3 -0.6,18.7 -0.7,37.4 -0.7,56.2 z m 2.1,174.8 c 2.6,-10.4 4.4,-21 5.7,-31.6 9.3,-2 18.4,-4.2 27.5,-6.7 1.9,13.6 5.7,26.7 13.6,38.5 -15.7,-0.4 -31.3,-0.4 -46.8,-0.2 z"
         id="path4773"
         inkscape:connector-curvature="0"
         style="fill:#ffffff;fill-opacity:1" />
    </g>
    <path
       d="m 36.974049,168.21043 c 0.132292,-1.19063 -1.164167,-2.09021 -1.957917,-0.87313 -0.502708,0.76729 -1.005416,1.53459 -1.508125,2.27542 -0.3175,0.44979 -0.661458,0.84667 -1.031875,1.24354 -5.926666,0.29104 -12.514791,2.8575 -15.954374,7.67292 -0.132292,-3.22792 -0.291042,-6.42938 -0.370417,-9.65729 4.577291,0.66145 9.313333,-1.27 12.938125,-3.9423 4.445,-3.30729 5.132916,-8.17562 4.60375,-13.30854 0.15875,-0.60854 0.211666,-1.24354 0.291041,-1.87854 0.132292,-0.87312 0.343959,-1.74625 0.608542,-2.59292 0.238125,-0.84666 -0.264583,-1.98437 -1.217083,-2.06375 -1.084792,-0.10583 -1.719792,0.87313 -2.010834,1.77271 -0.291041,0.97896 -0.661458,2.09021 -0.846666,3.20146 -2.143125,0.87313 -4.550834,0.97896 -6.746875,1.74625 -1.719792,0.60854 -3.227917,1.61396 -4.656667,2.75167 -1.243541,1.00541 -2.354791,2.32833 -3.175,3.81 0,-2.54 0,-5.08 0.05292,-7.59354 4.550833,-0.97896 9.710208,-2.59292 12.911666,-6.1648 3.042709,-3.41312 3.995209,-7.69937 3.466042,-12.065 0.211667,-1.32291 0.264583,-2.69875 0.47625,-3.9952 0.264583,-1.53459 1.084792,-3.01625 0,-4.39209 -0.158753,-0.18521 -0.555628,-0.29104 -0.767295,-0.21166 -1.825625,0.635 -2.06375,2.61937 -2.513541,4.28625 -0.105834,0.42333 -0.211667,0.84666 -0.3175,1.29645 -3.757084,0.50271 -7.355417,1.03188 -10.583333,3.22792 -0.899584,0.60854 -1.666875,1.50813 -2.328334,2.51354 0.07937,-5.76791 0.07937,-11.53583 -0.291041,-17.25083 -0.07938,-1.08479 -1.402292,-0.82021 -1.534584,0.10583 -0.79375,5.23875 -1.217083,10.55688 -1.42875,15.92792 -0.343958,-0.42333 -0.714375,-0.84667 -1.164166,-1.24354 -3.0956255,-2.67229 -7.4877095,-3.78354 -11.56229236,-3.83646 -0.079375,-0.29104 -0.15875,-0.58208 -0.2116667,-0.89958 -0.1322917,-0.9525 0.079375,-1.87855 -0.0264583,-2.83105 -0.1322917,-1.16416 -1.21708344,-1.37583 -1.95791674,-0.5027 -1.27,1.53458 -1.349375,3.73062 -0.873125,5.715 -0.1058333,0.26458 -0.15875,0.55562 -0.15875,0.84666 -0.079375,4.57729 1.3758333,10.84792 4.60375,14.31396 2.8310416,3.01625 7.0114586,4.25979 11.0860421,4.445 0,1.79917 0,3.57188 0,5.34458 -3.4131255,-3.38666 -9.2075004,-4.81541 -13.78479206,-5.3975 -0.079375,-0.37041 -0.15875004,-0.76729 -0.21166674,-1.16416 -0.079375,-0.92604 0.29104174,-1.87854 -0.026458,-2.77813 -0.2645833,-0.74083 -0.9525,-0.84666 -1.5345833,-0.39687 -1.3493751,1.00541 -1.4287501,3.14854 -1.3493751,4.70958 0.052917,0.92604 0.3439583,2.43417 1.0583334,3.33375 0.3175,3.99521 1.666875,7.9375 4.683125,10.71563 2.6722913,2.46062 7.5406243,3.22791 11.1389588,2.2225 0,2.83104 0.02646,5.68854 0.05292,8.51958 -0.396875,-0.52917 -0.79375,-1.03188 -1.27,-1.56104 -3.5454165,-3.96875 -9.3397915,-4.15396 -14.2345831,-4.39209 -0.1058334,-0.3175 -0.238125,-0.635 -0.3439584,-0.97895 -0.3704166,-1.19063 -0.5291666,-2.75167 -1.4022917,-3.67771 -0.5027083,-0.50271 -1.27,0.0265 -1.4816666,0.52916 -0.5820834,1.32292 -0.2645834,2.72521 0,4.07459 0.1058333,0.52916 0.2645833,1.13771 0.47625,1.74625 -0.079375,0.3175 -0.079375,0.66146 -0.026458,0.9525 0.6879166,4.445 3.0427083,9.73666 7.0379166,12.17083 3.042708,1.85208 7.858125,3.06917 11.4300005,1.71979 0.15875,6.19125 0.423333,12.35604 0.79375,18.54729 0.185208,3.04271 4.021666,1.7198 3.889375,-0.8202 -0.3175,-5.74146 -0.635,-11.45646 -0.899584,-17.17146 4.233333,1.74625 9.498542,-0.18521 13.17625,-2.40771 4.153958,-2.48708 6.35,-7.03792 5.371042,-11.77396 0.846666,-1.19062 1.455208,-2.56646 1.613958,-3.91583 z m -20.79625,-26.64354 c 0.9525,-2.61938 1.852084,-5.26521 4.339167,-6.72042 2.248958,-1.32292 5.529791,-1.34938 8.307916,-1.48167 0.02646,0.34396 0.02646,0.71438 0.07937,1.05834 0.15875,3.38666 -0.79375,6.40291 -3.677708,8.70479 -2.566458,2.06375 -6.111875,2.72521 -9.2075,3.62479 0.07938,-1.69333 0.132292,-3.43958 0.15875,-5.18583 z m -3.386666,21.93395 c -2.487084,-0.60854 -5.1329175,-0.37041 -7.5670845,-1.48166 -2.9104163,-1.32292 -4.28624956,-4.78896 -4.81541626,-7.96396 4.41854126,0.66146 10.23937576,2.19604 12.38250076,5.95312 0,1.19063 0,2.32834 0,3.4925 z m 0.02646,-17.38312 c -2.513544,-0.44979 -4.9741695,-0.92604 -7.1966695,-2.46063 -2.9104163,-2.03729 -4.3920829,-6.6675 -4.86833286,-10.53041 0.079375,-0.0794 0.1322916,-0.18521 0.1852083,-0.26459 2.59291666,0.0265 5.05354156,0.58209 7.51416656,1.64042 2.3812505,1.03188 3.7306255,2.64583 4.4450005,4.65667 -0.05292,2.30187 -0.07937,4.63021 -0.07937,6.95854 z m -7.6464585,35.2425 c -3.4660419,-1.27 -5.71500026,-5.05354 -6.8527086,-8.65188 5.6620836,-0.26458 11.8797921,2.19605 14.5785421,7.01146 0.02646,1.08479 0.02646,2.16959 0.05292,3.25438 -2.354792,-0.89959 -5.4768755,-0.76729 -7.7787505,-1.61396 z M 15.992591,163.60668 c 1.5875,-3.25438 3.227917,-5.97959 6.482291,-7.85813 2.38125,-1.37583 5.185834,-1.27 7.805209,-1.85208 0.105833,3.01625 -0.396875,5.55625 -3.01625,7.83167 -3.201459,2.77812 -7.196667,3.175 -11.218333,3.22791 -0.02646,-0.42333 -0.05292,-0.87312 -0.05292,-1.34937 z m 1.27,18.60021 c 2.778125,-5.05355 9.022291,-7.35542 14.737291,-7.3025 0.211667,6.64104 -9.68375,8.28145 -14.737291,7.3025 z"
       id="path4793"
       inkscape:connector-curvature="0"
       style="fill:#ffffff;fill-opacity:1;stroke-width:0.26458332"
       inkscape:export-xdpi="11.508249"
       inkscape:export-ydpi="11.508249" />
  </g>
</svg>
